%YAML 1.1
%TAG !u! tag:unity3d.com,2011:
--- !u!1045 &1
EditorBuildSettings:
  m_ObjectHideFlags: 0
  serializedVersion: 2
  m_Scenes:
  - enabled: 1
    path: Assets/Scenes/Start.unity
    guid: fd375f3fe886d994c8dae2ab3ad13340
  - enabled: 1
    path: Assets/Scenes/InicioXquien.unity
    guid: 36d5344c7f933dd408ee564ab7e0961f
  - enabled: 1
    path: Assets/Scenes/QUIEN.unity
    guid: 2cda990e2423bbf4892e6590ba056729
  - enabled: 1
    path: Assets/Scenes/QuienVID.unity
    guid: 9153dd27efd595d4898e903c5f27c6a6
  - enabled: 1
    path: Assets/Scenes/QuienXCars.unity
    guid: dee936e718420a64fb3da0137e1282ad
  - enabled: 1
    path: Assets/Scenes/CARS.unity
    guid: 97a191b44d47bd84b812827259d6e35d
  - enabled: 1
    path: Assets/Scenes/CarsVID.unity
    guid: 2f4c2b66615888944991bc471d8bdea9
  - enabled: 1
    path: Assets/Scenes/CarsXSomeone.unity
    guid: 134771a0c41b9f84c9e0d229a83a0ed3
  - enabled: 1
    path: Assets/Scenes/SOMEONE.unity
    guid: a0ae6e95903505e4184cc14e594666df
  - enabled: 1
    path: Assets/Scenes/SomeoneVID.unity
    guid: 069794762d9eaaf4bbe9e2accd3e08ac
  - enabled: 1
    path: Assets/Scenes/SomeoneXMAI.unity
    guid: f44c2108fd35f974e95bc309601246e4
  - enabled: 1
    path: Assets/Scenes/MAI.unity
    guid: dce3c3534d3ee63429fef7bff3bdad9d
  - enabled: 1
    path: Assets/Scenes/MAIVID.unity
    guid: 730258849a351364b960fa5ebd8684a5
  - enabled: 1
    path: Assets/Scenes/MAIXMR.unity
    guid: 1338089646d5187469e7c17aa45e7bd3
  - enabled: 1
    path: Assets/Scenes/Me rehuso.unity
    guid: e3cd9fe25a482aa43b5a15cbac925178
  - enabled: 1
    path: Assets/Scenes/MeRehuVID.unity
    guid: 0c9408045d12c0d4eae982c4718a6a13
  - enabled: 1
    path: Assets/Scenes/MeRehuXLaDosis.unity
    guid: cd526542e747ce944ae7b70f8746fa3b
  - enabled: 1
    path: Assets/Scenes/La Dosis.unity
    guid: 167603a52a149224299805abf449ed18
  - enabled: 1
    path: Assets/Scenes/LaDosisVID.unity
    guid: e65fbadad249c484fbaeba461f306b49
  - enabled: 1
    path: Assets/Scenes/Final.unity
    guid: dbd025ac81acf4240b659e9786ba1833
  m_configObjects: {}
